<svg width="146" height="70" viewBox="0 0 146 70" fill="none" xmlns="http://www.w3.org/2000/svg">
<rect x="8" y="8" width="54" height="54" rx="27" fill="#FAFAFA"/>
<path d="M32.511 26.529C32.511 24.0277 34.5387 22 37.04 22V42.3806C37.04 44.882 35.0123 46.9097 32.511 46.9097V26.529Z" fill="#16A75C"/>
<path d="M27.529 42.3806C29.9053 42.3806 31.8316 44.307 31.8316 46.6832V46.9097H27.529V42.3806Z" fill="#FFD026"/>
<path d="M23 36.4929C25.5013 36.4929 27.529 38.5206 27.529 41.0219V46.9097C25.0277 46.9097 23 44.882 23 42.3806V36.4929Z" fill="#FFD026"/>
<path d="M37.7194 22H42.7013C44.9525 22 46.7774 23.8249 46.7774 26.0761H40.4368C38.936 26.0761 37.7194 24.8595 37.7194 23.3587V22Z" fill="#1E88E5"/>
<path d="M37.7194 34.4548C37.7194 32.954 38.936 31.7374 40.4368 31.7374H46.7774C46.7774 33.9886 44.9525 35.8135 42.7013 35.8135H37.7194V34.4548Z" fill="#1E88E5"/>
<path fill-rule="evenodd" clip-rule="evenodd" d="M40.0971 31.7374C41.6604 31.7374 42.9278 30.4701 42.9278 28.9068C42.9278 27.3447 41.6625 26.0782 40.101 26.0761H46.7774V31.7374H39.9839V31.7352C40.0214 31.7367 40.0592 31.7374 40.0971 31.7374ZM39.9839 26.0783C40.0202 26.0769 40.0566 26.0762 40.0932 26.0761H39.9839V26.0783Z" fill="#1E88E5"/>
<path d="M74.459 20.75C74.459 21.27 74.394 21.738 74.264 22.154C74.134 22.57 73.9433 22.9232 73.692 23.2135C73.445 23.4995 73.1352 23.7205 72.7625 23.8765C72.3942 24.0282 71.9695 24.104 71.4885 24.104C71.0552 24.104 70.6088 24.0433 70.1495 23.922L70.2275 23.103C70.2362 23.025 70.2643 22.9622 70.312 22.9145C70.364 22.8625 70.4398 22.8365 70.5395 22.8365C70.6132 22.8365 70.7128 22.856 70.8385 22.895C70.9685 22.9297 71.1375 22.947 71.3455 22.947C71.6228 22.947 71.8677 22.9058 72.08 22.8235C72.2967 22.7412 72.4787 22.6133 72.626 22.44C72.7733 22.2623 72.8838 22.037 72.9575 21.764C73.0355 21.491 73.0745 21.1638 73.0745 20.7825V14.666H74.459V20.75ZM81.7277 17.396V24H80.9672C80.7939 24 80.6812 23.9155 80.6292 23.7465L80.5382 23.0835C80.3952 23.2352 80.2457 23.3738 80.0897 23.4995C79.9337 23.6252 79.7669 23.7335 79.5892 23.8245C79.4116 23.9112 79.2231 23.9783 79.0237 24.026C78.8244 24.078 78.6099 24.104 78.3802 24.104C78.0162 24.104 77.6956 24.0433 77.4182 23.922C77.1452 23.8007 76.9156 23.6317 76.7292 23.415C76.5429 23.194 76.4021 22.9297 76.3067 22.622C76.2114 22.3143 76.1637 21.9742 76.1637 21.6015V17.396H77.4377V21.6015C77.4377 22.0738 77.5461 22.4422 77.7627 22.7065C77.9794 22.9665 78.3109 23.0965 78.7572 23.0965C79.0822 23.0965 79.3856 23.0207 79.6672 22.869C79.9489 22.713 80.2132 22.5007 80.4602 22.232V17.396H81.7277ZM84.6929 18.6635C84.9053 18.2302 85.1609 17.89 85.4599 17.643C85.7589 17.396 86.1186 17.2725 86.5389 17.2725C86.6819 17.2725 86.8163 17.2898 86.9419 17.3245C87.0719 17.3548 87.1846 17.4025 87.2799 17.4675L87.1954 18.423C87.1651 18.54 87.0936 18.5985 86.9809 18.5985C86.9203 18.5985 86.8293 18.5877 86.7079 18.566C86.5866 18.54 86.4566 18.527 86.3179 18.527C86.1143 18.527 85.9344 18.5573 85.7784 18.618C85.6224 18.6743 85.4816 18.761 85.3559 18.878C85.2346 18.9907 85.1263 19.1315 85.0309 19.3005C84.9356 19.4652 84.8468 19.6537 84.7644 19.866V24H83.4969V17.396H84.2249C84.3636 17.396 84.4568 17.422 84.5044 17.474C84.5564 17.5217 84.5933 17.6083 84.6149 17.734L84.6929 18.6635ZM89.4472 18.3125C89.5902 18.1608 89.7397 18.0222 89.8957 17.8965C90.0517 17.7708 90.2164 17.6647 90.3897 17.578C90.5674 17.487 90.7559 17.4177 90.9552 17.37C91.1589 17.318 91.3755 17.292 91.6052 17.292C91.9692 17.292 92.2877 17.3527 92.5607 17.474C92.838 17.5953 93.0699 17.7665 93.2562 17.9875C93.4425 18.2042 93.5834 18.4663 93.6787 18.774C93.774 19.0817 93.8217 19.4218 93.8217 19.7945V24H92.5477V19.7945C92.5477 19.3222 92.4394 18.956 92.2227 18.696C92.006 18.4317 91.6745 18.2995 91.2282 18.2995C90.9032 18.2995 90.5977 18.3775 90.3117 18.5335C90.03 18.6852 89.7679 18.8932 89.5252 19.1575V24H88.2577V17.396H89.0182C89.1959 17.396 89.3064 17.4805 89.3497 17.6495L89.4472 18.3125ZM99.0811 21.0685C98.5654 21.0858 98.1278 21.127 97.7681 21.192C97.4084 21.2527 97.1159 21.335 96.8906 21.439C96.6653 21.543 96.5028 21.6665 96.4031 21.8095C96.3034 21.9482 96.2536 22.1042 96.2536 22.2775C96.2536 22.4422 96.2796 22.5852 96.3316 22.7065C96.3879 22.8235 96.4616 22.921 96.5526 22.999C96.6479 23.0727 96.7584 23.1268 96.8841 23.1615C97.0098 23.1962 97.1463 23.2135 97.2936 23.2135C97.4886 23.2135 97.6663 23.194 97.8266 23.155C97.9913 23.116 98.1451 23.0618 98.2881 22.9925C98.4311 22.9188 98.5676 22.83 98.6976 22.726C98.8276 22.622 98.9554 22.5028 99.0811 22.3685V21.0685ZM95.3631 18.319C95.7314 17.968 96.1301 17.7058 96.5591 17.5325C96.9924 17.3592 97.4669 17.2725 97.9826 17.2725C98.3596 17.2725 98.6933 17.3353 98.9836 17.461C99.2739 17.5823 99.5188 17.7535 99.7181 17.9745C99.9174 18.1955 100.067 18.4598 100.167 18.7675C100.271 19.0752 100.323 19.4153 100.323 19.788V24H99.7571C99.6314 24 99.5361 23.9805 99.4711 23.9415C99.4061 23.8982 99.3541 23.8202 99.3151 23.7075L99.1786 23.129C99.0096 23.285 98.8428 23.4237 98.6781 23.545C98.5134 23.662 98.3401 23.7638 98.1581 23.8505C97.9804 23.9328 97.7898 23.9957 97.5861 24.039C97.3824 24.0823 97.1571 24.104 96.9101 24.104C96.6501 24.104 96.4053 24.0693 96.1756 24C95.9503 23.9263 95.7531 23.8158 95.5841 23.6685C95.4151 23.5212 95.2808 23.337 95.1811 23.116C95.0858 22.895 95.0381 22.6372 95.0381 22.3425C95.0381 22.0825 95.1074 21.8333 95.2461 21.595C95.3891 21.3523 95.6188 21.1357 95.9351 20.945C96.2558 20.7543 96.6718 20.5983 97.1831 20.477C97.6988 20.3557 98.3314 20.2863 99.0811 20.269V19.788C99.0811 19.2897 98.9749 18.917 98.7626 18.67C98.5503 18.423 98.2383 18.2995 97.8266 18.2995C97.5493 18.2995 97.3153 18.3342 97.1246 18.4035C96.9383 18.4728 96.7758 18.5508 96.6371 18.6375C96.5028 18.7198 96.3836 18.7957 96.2796 18.865C96.1799 18.9343 96.0759 18.969 95.9676 18.969C95.8809 18.969 95.8051 18.9452 95.7401 18.8975C95.6794 18.8498 95.6296 18.7935 95.5906 18.7285L95.3631 18.319ZM103.319 14.406V24H102.045V14.406H103.319ZM72.5415 40H71.1505V30.666H72.5415V40ZM75.6728 34.3125C75.8158 34.1608 75.9653 34.0222 76.1213 33.8965C76.2773 33.7708 76.4419 33.6647 76.6153 33.578C76.7929 33.487 76.9814 33.4177 77.1808 33.37C77.3844 33.318 77.6011 33.292 77.8308 33.292C78.1948 33.292 78.5133 33.3527 78.7863 33.474C79.0636 33.5953 79.2954 33.7665 79.4818 33.9875C79.6681 34.2042 79.8089 34.4663 79.9043 34.774C79.9996 35.0817 80.0473 35.4218 80.0473 35.7945V40H78.7733V35.7945C78.7733 35.3222 78.6649 34.956 78.4483 34.696C78.2316 34.4317 77.9001 34.2995 77.4538 34.2995C77.1288 34.2995 76.8233 34.3775 76.5373 34.5335C76.2556 34.6852 75.9934 34.8932 75.7508 35.1575V40H74.4833V33.396H75.2438C75.4214 33.396 75.5319 33.4805 75.5753 33.6495L75.6728 34.3125ZM82.0916 40V34.436L81.4026 34.3515C81.303 34.3298 81.2206 34.2952 81.1556 34.2475C81.095 34.1955 81.0646 34.1218 81.0646 34.0265V33.5H82.0916V32.902C82.0916 32.525 82.1458 32.1892 82.2541 31.8945C82.3625 31.5998 82.5163 31.3507 82.7156 31.147C82.9193 30.939 83.162 30.783 83.4436 30.679C83.7296 30.5707 84.0503 30.5165 84.4056 30.5165C84.7046 30.5165 84.9798 30.5598 85.2311 30.6465L85.2051 31.2835C85.2008 31.3398 85.1835 31.3832 85.1531 31.4135C85.1228 31.4395 85.0816 31.459 85.0296 31.472C84.982 31.485 84.9213 31.4937 84.8476 31.498C84.7783 31.498 84.7025 31.498 84.6201 31.498C84.4251 31.498 84.2475 31.5218 84.0871 31.5695C83.9268 31.6172 83.7903 31.6973 83.6776 31.81C83.565 31.9227 83.4783 32.0722 83.4176 32.2585C83.357 32.4405 83.3266 32.668 83.3266 32.941V33.5H85.1791V34.423H83.3656V40H82.0916ZM88.8505 33.292C89.3358 33.292 89.7735 33.3722 90.1635 33.5325C90.5578 33.6885 90.8915 33.916 91.1645 34.215C91.4418 34.5097 91.6542 34.8672 91.8015 35.2875C91.9488 35.7035 92.0225 36.1715 92.0225 36.6915C92.0225 37.2115 91.9488 37.6817 91.8015 38.102C91.6542 38.5223 91.4418 38.8798 91.1645 39.1745C90.8915 39.4692 90.5578 39.6967 90.1635 39.857C89.7735 40.013 89.3358 40.091 88.8505 40.091C88.3608 40.091 87.9188 40.013 87.5245 39.857C87.1345 39.6967 86.8008 39.4692 86.5235 39.1745C86.2462 38.8798 86.0317 38.5223 85.88 38.102C85.7327 37.6817 85.659 37.2115 85.659 36.6915C85.659 36.1715 85.7327 35.7035 85.88 35.2875C86.0317 34.8672 86.2462 34.5097 86.5235 34.215C86.8008 33.916 87.1345 33.6885 87.5245 33.5325C87.9188 33.3722 88.3608 33.292 88.8505 33.292ZM88.8505 39.103C89.4745 39.103 89.9403 38.8928 90.248 38.4725C90.5557 38.0522 90.7095 37.4607 90.7095 36.698C90.7095 35.9353 90.5557 35.3438 90.248 34.9235C89.9403 34.4988 89.4745 34.2865 88.8505 34.2865C88.2178 34.2865 87.7455 34.4988 87.4335 34.9235C87.1258 35.3438 86.972 35.9353 86.972 36.698C86.972 37.4607 87.1258 38.0522 87.4335 38.4725C87.7455 38.8928 88.2178 39.103 88.8505 39.103ZM94.6334 34.6635C94.8457 34.2302 95.1014 33.89 95.4004 33.643C95.6994 33.396 96.059 33.2725 96.4794 33.2725C96.6224 33.2725 96.7567 33.2898 96.8824 33.3245C97.0124 33.3548 97.125 33.4025 97.2204 33.4675L97.1359 34.423C97.1055 34.54 97.034 34.5985 96.9214 34.5985C96.8607 34.5985 96.7697 34.5877 96.6484 34.566C96.527 34.54 96.397 34.527 96.2584 34.527C96.0547 34.527 95.8749 34.5573 95.7189 34.618C95.5629 34.6743 95.422 34.761 95.2964 34.878C95.175 34.9907 95.0667 35.1315 94.9714 35.3005C94.876 35.4652 94.7872 35.6537 94.7049 35.866V40H93.4374V33.396H94.1654C94.304 33.396 94.3972 33.422 94.4449 33.474C94.4969 33.5217 94.5337 33.6083 94.5554 33.734L94.6334 34.6635ZM98.1981 40V33.396H98.9586C99.1363 33.396 99.2468 33.4805 99.2901 33.6495L99.3811 34.28C99.6238 33.9897 99.8925 33.7535 100.187 33.5715C100.486 33.3852 100.835 33.292 101.234 33.292C101.671 33.292 102.027 33.4133 102.3 33.656C102.573 33.8943 102.772 34.2193 102.898 34.631C102.993 34.397 103.116 34.1955 103.268 34.0265C103.42 33.8575 103.589 33.7188 103.775 33.6105C103.961 33.5022 104.159 33.422 104.367 33.37C104.579 33.318 104.793 33.292 105.01 33.292C105.361 33.292 105.673 33.3483 105.946 33.461C106.223 33.5693 106.457 33.7297 106.648 33.942C106.839 34.1543 106.984 34.4165 107.084 34.7285C107.183 35.0405 107.233 35.3958 107.233 35.7945V40H105.959V35.7945C105.959 35.3005 105.851 34.9278 105.634 34.6765C105.422 34.4252 105.11 34.2995 104.698 34.2995C104.516 34.2995 104.343 34.332 104.178 34.397C104.013 34.4577 103.868 34.5508 103.743 34.6765C103.621 34.8022 103.524 34.9582 103.45 35.1445C103.381 35.3308 103.346 35.5475 103.346 35.7945V40H102.072V35.7945C102.072 35.2832 101.97 34.9062 101.767 34.6635C101.563 34.4208 101.264 34.2995 100.87 34.2995C100.597 34.2995 100.343 34.371 100.109 34.514C99.8751 34.657 99.6606 34.852 99.4656 35.099V40H98.1981ZM112.487 37.0685C111.972 37.0858 111.534 37.127 111.174 37.192C110.815 37.2527 110.522 37.335 110.297 37.439C110.072 37.543 109.909 37.6665 109.809 37.8095C109.71 37.9482 109.66 38.1042 109.66 38.2775C109.66 38.4422 109.686 38.5852 109.738 38.7065C109.794 38.8235 109.868 38.921 109.959 38.999C110.054 39.0727 110.165 39.1268 110.29 39.1615C110.416 39.1962 110.553 39.2135 110.7 39.2135C110.895 39.2135 111.073 39.194 111.233 39.155C111.398 39.116 111.551 39.0618 111.694 38.9925C111.837 38.9188 111.974 38.83 112.104 38.726C112.234 38.622 112.362 38.5028 112.487 38.3685V37.0685ZM108.769 34.319C109.138 33.968 109.536 33.7058 109.965 33.5325C110.399 33.3592 110.873 33.2725 111.389 33.2725C111.766 33.2725 112.1 33.3353 112.39 33.461C112.68 33.5823 112.925 33.7535 113.124 33.9745C113.324 34.1955 113.473 34.4598 113.573 34.7675C113.677 35.0752 113.729 35.4153 113.729 35.788V40H113.163C113.038 40 112.942 39.9805 112.877 39.9415C112.812 39.8982 112.76 39.8202 112.721 39.7075L112.585 39.129C112.416 39.285 112.249 39.4237 112.084 39.545C111.92 39.662 111.746 39.7638 111.564 39.8505C111.387 39.9328 111.196 39.9957 110.992 40.039C110.789 40.0823 110.563 40.104 110.316 40.104C110.056 40.104 109.812 40.0693 109.582 40C109.357 39.9263 109.159 39.8158 108.99 39.6685C108.821 39.5212 108.687 39.337 108.587 39.116C108.492 38.895 108.444 38.6372 108.444 38.3425C108.444 38.0825 108.514 37.8333 108.652 37.595C108.795 37.3523 109.025 37.1357 109.341 36.945C109.662 36.7543 110.078 36.5983 110.589 36.477C111.105 36.3557 111.738 36.2863 112.487 36.269V35.788C112.487 35.2897 112.381 34.917 112.169 34.67C111.957 34.423 111.645 34.2995 111.233 34.2995C110.956 34.2995 110.722 34.3342 110.531 34.4035C110.345 34.4728 110.182 34.5508 110.043 34.6375C109.909 34.7198 109.79 34.7957 109.686 34.865C109.586 34.9343 109.482 34.969 109.374 34.969C109.287 34.969 109.211 34.9452 109.146 34.8975C109.086 34.8498 109.036 34.7935 108.997 34.7285L108.769 34.319ZM119.319 34.5335C119.284 34.5898 119.248 34.631 119.209 34.657C119.17 34.6787 119.12 34.6895 119.059 34.6895C118.99 34.6895 118.912 34.6657 118.825 34.618C118.743 34.5703 118.641 34.5183 118.52 34.462C118.403 34.4057 118.264 34.3537 118.104 34.306C117.943 34.2583 117.753 34.2345 117.532 34.2345C117.35 34.2345 117.183 34.2583 117.031 34.306C116.884 34.3493 116.758 34.4122 116.654 34.4945C116.55 34.5725 116.47 34.6678 116.414 34.7805C116.357 34.8888 116.329 35.0058 116.329 35.1315C116.329 35.2962 116.377 35.4327 116.472 35.541C116.572 35.6493 116.7 35.7425 116.856 35.8205C117.016 35.8985 117.196 35.97 117.395 36.035C117.599 36.0957 117.805 36.1607 118.013 36.23C118.225 36.2993 118.431 36.3795 118.63 36.4705C118.834 36.5572 119.014 36.6677 119.17 36.802C119.33 36.932 119.458 37.0902 119.553 37.2765C119.653 37.4628 119.703 37.6903 119.703 37.959C119.703 38.2667 119.646 38.5527 119.534 38.817C119.425 39.077 119.263 39.3023 119.046 39.493C118.834 39.6837 118.569 39.8332 118.253 39.9415C117.937 40.0498 117.575 40.104 117.168 40.104C116.713 40.104 116.292 40.0282 115.907 39.8765C115.521 39.7248 115.198 39.532 114.938 39.298L115.237 38.8105C115.272 38.7498 115.315 38.7043 115.367 38.674C115.419 38.6393 115.488 38.622 115.575 38.622C115.657 38.622 115.742 38.6523 115.829 38.713C115.915 38.7737 116.019 38.8408 116.141 38.9145C116.262 38.9838 116.409 39.0488 116.583 39.1095C116.756 39.1658 116.973 39.194 117.233 39.194C117.449 39.194 117.638 39.168 117.798 39.116C117.958 39.0597 118.091 38.986 118.195 38.895C118.303 38.7997 118.383 38.6913 118.435 38.57C118.487 38.4487 118.513 38.3208 118.513 38.1865C118.513 38.0132 118.463 37.8702 118.364 37.7575C118.268 37.6405 118.14 37.5408 117.98 37.4585C117.824 37.3762 117.644 37.3047 117.441 37.244C117.237 37.1833 117.029 37.1183 116.817 37.049C116.604 36.9797 116.396 36.8995 116.193 36.8085C115.989 36.7175 115.807 36.6027 115.647 36.464C115.491 36.3253 115.363 36.1563 115.263 35.957C115.168 35.7577 115.12 35.515 115.12 35.229C115.12 34.9733 115.172 34.7285 115.276 34.4945C115.384 34.2605 115.538 34.0547 115.738 33.877C115.941 33.6993 116.19 33.5585 116.485 33.4545C116.784 33.3462 117.124 33.292 117.506 33.292C117.943 33.292 118.338 33.3613 118.689 33.5C119.044 33.6387 119.347 33.8293 119.599 34.072L119.319 34.5335ZM122.401 33.396V40H121.134V33.396H122.401ZM122.642 31.355C122.642 31.472 122.618 31.5847 122.57 31.693C122.522 31.797 122.457 31.8902 122.375 31.9725C122.297 32.0505 122.204 32.1133 122.096 32.161C121.987 32.2043 121.875 32.226 121.758 32.226C121.641 32.226 121.53 32.2043 121.426 32.161C121.322 32.1133 121.229 32.0505 121.147 31.9725C121.069 31.8902 121.006 31.797 120.958 31.693C120.915 31.5847 120.893 31.472 120.893 31.355C120.893 31.2337 120.915 31.121 120.958 31.017C121.006 30.9087 121.069 30.8155 121.147 30.7375C121.229 30.6552 121.322 30.5923 121.426 30.549C121.53 30.5013 121.641 30.4775 121.758 30.4775C121.875 30.4775 121.987 30.5013 122.096 30.549C122.204 30.5923 122.297 30.6552 122.375 30.7375C122.457 30.8155 122.522 30.9087 122.57 31.017C122.618 31.121 122.642 31.2337 122.642 31.355ZM73.978 51.4695C74.329 51.4695 74.6367 51.424 74.901 51.333C75.1697 51.242 75.3928 51.1142 75.5705 50.9495C75.7525 50.7805 75.889 50.5812 75.98 50.3515C76.071 50.1175 76.1165 49.8597 76.1165 49.578C76.1165 49.0103 75.9388 48.564 75.5835 48.239C75.2325 47.914 74.6973 47.7515 73.978 47.7515H72.535V51.4695H73.978ZM73.978 46.666C74.576 46.666 75.096 46.7353 75.538 46.874C75.98 47.0127 76.3462 47.2098 76.6365 47.4655C76.9268 47.7168 77.1413 48.0223 77.28 48.382C77.423 48.7417 77.4945 49.1403 77.4945 49.578C77.4945 50.0157 77.4187 50.4187 77.267 50.787C77.1153 51.151 76.8922 51.4652 76.5975 51.7295C76.3028 51.9938 75.9345 52.1997 75.4925 52.347C75.0548 52.49 74.55 52.5615 73.978 52.5615H72.535V56H71.1505V46.666H73.978ZM82.806 51.9635C82.806 51.7122 82.7692 51.4803 82.6955 51.268C82.6262 51.0557 82.5222 50.8715 82.3835 50.7155C82.2448 50.5595 82.0758 50.4382 81.8765 50.3515C81.6772 50.2648 81.4475 50.2215 81.1875 50.2215C80.6545 50.2215 80.2342 50.3753 79.9265 50.683C79.6232 50.9907 79.4303 51.4175 79.348 51.9635H82.806ZM83.8525 55.0575C83.6965 55.2395 83.5167 55.3977 83.313 55.532C83.1093 55.662 82.8927 55.7682 82.663 55.8505C82.4333 55.9328 82.195 55.9935 81.948 56.0325C81.7053 56.0715 81.4648 56.091 81.2265 56.091C80.7715 56.091 80.349 56.0152 79.959 55.8635C79.5733 55.7075 79.2375 55.4822 78.9515 55.1875C78.6698 54.8885 78.4488 54.5202 78.2885 54.0825C78.1325 53.6405 78.0545 53.1335 78.0545 52.5615C78.0545 52.1022 78.126 51.6753 78.269 51.281C78.412 50.8823 78.6157 50.5357 78.88 50.241C79.1487 49.9463 79.4758 49.7145 79.8615 49.5455C80.2472 49.3765 80.6805 49.292 81.1615 49.292C81.5645 49.292 81.935 49.3592 82.273 49.4935C82.6153 49.6235 82.91 49.8142 83.157 50.0655C83.404 50.3168 83.5968 50.6267 83.7355 50.995C83.8785 51.3633 83.95 51.7837 83.95 52.256C83.95 52.451 83.9283 52.5832 83.885 52.6525C83.8417 52.7175 83.7615 52.75 83.6445 52.75H79.3155C79.3285 53.1443 79.3848 53.4888 79.4845 53.7835C79.5842 54.0738 79.7207 54.3165 79.894 54.5115C80.0717 54.7065 80.2818 54.8517 80.5245 54.947C80.7672 55.0423 81.038 55.09 81.337 55.09C81.6187 55.09 81.8613 55.0575 82.065 54.9925C82.273 54.9275 82.4507 54.8582 82.598 54.7845C82.7497 54.7065 82.8753 54.635 82.975 54.57C83.079 54.505 83.17 54.4725 83.248 54.4725C83.352 54.4725 83.4322 54.5115 83.4885 54.5895L83.8525 55.0575ZM86.5019 50.3125C86.6449 50.1608 86.7944 50.0222 86.9504 49.8965C87.1064 49.7708 87.271 49.6647 87.4444 49.578C87.622 49.487 87.8105 49.4177 88.0099 49.37C88.2135 49.318 88.4302 49.292 88.6599 49.292C89.0239 49.292 89.3424 49.3527 89.6154 49.474C89.8927 49.5953 90.1245 49.7665 90.3109 49.9875C90.4972 50.2042 90.638 50.4663 90.7334 50.774C90.8287 51.0817 90.8764 51.4218 90.8764 51.7945V56H89.6024V51.7945C89.6024 51.3222 89.494 50.956 89.2774 50.696C89.0607 50.4317 88.7292 50.2995 88.2829 50.2995C87.9579 50.2995 87.6524 50.3775 87.3664 50.5335C87.0847 50.6852 86.8225 50.8932 86.5799 51.1575V56H85.3124V49.396H86.0729C86.2505 49.396 86.361 49.4805 86.4044 49.6495L86.5019 50.3125ZM96.8443 50.995C96.6363 50.722 96.411 50.5313 96.1683 50.423C95.93 50.3147 95.6613 50.2605 95.3623 50.2605C94.7816 50.2605 94.331 50.4707 94.0103 50.891C93.694 51.307 93.5358 51.9158 93.5358 52.7175C93.5358 53.1378 93.5705 53.4975 93.6398 53.7965C93.7135 54.0912 93.8175 54.3338 93.9518 54.5245C94.0905 54.7108 94.2595 54.8495 94.4588 54.9405C94.6581 55.0272 94.8835 55.0705 95.1348 55.0705C95.5031 55.0705 95.8216 54.9882 96.0903 54.8235C96.359 54.6588 96.6103 54.427 96.8443 54.128V50.995ZM98.1183 46.406V56H97.3513C97.1736 56 97.0631 55.9155 97.0198 55.7465L96.9093 54.986C96.6276 55.3197 96.307 55.5883 95.9473 55.792C95.592 55.9913 95.1803 56.091 94.7123 56.091C94.3353 56.091 93.993 56.0173 93.6853 55.87C93.382 55.7227 93.122 55.5082 92.9053 55.2265C92.6886 54.9405 92.5218 54.5873 92.4048 54.167C92.2878 53.7467 92.2293 53.2635 92.2293 52.7175C92.2293 52.2278 92.2943 51.7728 92.4243 51.3525C92.5543 50.9322 92.7428 50.5682 92.9898 50.2605C93.2368 49.9528 93.5358 49.7123 93.8868 49.539C94.2378 49.3613 94.6343 49.2725 95.0763 49.2725C95.475 49.2725 95.813 49.3375 96.0903 49.4675C96.372 49.5975 96.6233 49.7817 96.8443 50.02V46.406H98.1183ZM103.436 53.0685C102.92 53.0858 102.482 53.127 102.123 53.192C101.763 53.2527 101.47 53.335 101.245 53.439C101.02 53.543 100.857 53.6665 100.758 53.8095C100.658 53.9482 100.608 54.1042 100.608 54.2775C100.608 54.4422 100.634 54.5852 100.686 54.7065C100.742 54.8235 100.816 54.921 100.907 54.999C101.002 55.0727 101.113 55.1268 101.239 55.1615C101.364 55.1962 101.501 55.2135 101.648 55.2135C101.843 55.2135 102.021 55.194 102.181 55.155C102.346 55.116 102.5 55.0618 102.643 54.9925C102.786 54.9188 102.922 54.83 103.052 54.726C103.182 54.622 103.31 54.5028 103.436 54.3685V53.0685ZM99.7176 50.319C100.086 49.968 100.485 49.7058 100.914 49.5325C101.347 49.3592 101.821 49.2725 102.337 49.2725C102.714 49.2725 103.048 49.3353 103.338 49.461C103.628 49.5823 103.873 49.7535 104.073 49.9745C104.272 50.1955 104.421 50.4598 104.521 50.7675C104.625 51.0752 104.677 51.4153 104.677 51.788V56H104.112C103.986 56 103.891 55.9805 103.826 55.9415C103.761 55.8982 103.709 55.8202 103.67 55.7075L103.533 55.129C103.364 55.285 103.197 55.4237 103.033 55.545C102.868 55.662 102.695 55.7638 102.513 55.8505C102.335 55.9328 102.144 55.9957 101.941 56.039C101.737 56.0823 101.512 56.104 101.265 56.104C101.005 56.104 100.76 56.0693 100.53 56C100.305 55.9263 100.108 55.8158 99.9386 55.6685C99.7696 55.5212 99.6353 55.337 99.5356 55.116C99.4403 54.895 99.3926 54.6372 99.3926 54.3425C99.3926 54.0825 99.4619 53.8333 99.6006 53.595C99.7436 53.3523 99.9733 53.1357 100.29 52.945C100.61 52.7543 101.026 52.5983 101.538 52.477C102.053 52.3557 102.686 52.2863 103.436 52.269V51.788C103.436 51.2897 103.329 50.917 103.117 50.67C102.905 50.423 102.593 50.2995 102.181 50.2995C101.904 50.2995 101.67 50.3342 101.479 50.4035C101.293 50.4728 101.13 50.5508 100.992 50.6375C100.857 50.7198 100.738 50.7957 100.634 50.865C100.534 50.9343 100.43 50.969 100.322 50.969C100.235 50.969 100.16 50.9452 100.095 50.8975C100.034 50.8498 99.9841 50.7935 99.9451 50.7285L99.7176 50.319ZM107.641 54.375C107.849 54.648 108.073 54.8387 108.311 54.947C108.554 55.0553 108.824 55.1095 109.123 55.1095C109.704 55.1095 110.153 54.9015 110.469 54.4855C110.79 54.0652 110.95 53.4542 110.95 52.6525C110.95 52.2322 110.913 51.8747 110.839 51.58C110.77 51.281 110.666 51.0383 110.527 50.852C110.393 50.6613 110.226 50.5227 110.027 50.436C109.828 50.345 109.602 50.2995 109.351 50.2995C108.983 50.2995 108.662 50.3818 108.389 50.5465C108.12 50.7112 107.871 50.9452 107.641 51.2485V54.375ZM107.576 50.384C107.715 50.2193 107.862 50.0698 108.018 49.9355C108.179 49.7968 108.35 49.6798 108.532 49.5845C108.714 49.4848 108.907 49.409 109.11 49.357C109.318 49.3007 109.539 49.2725 109.773 49.2725C110.15 49.2725 110.491 49.3462 110.794 49.4935C111.102 49.6408 111.364 49.8575 111.58 50.1435C111.797 50.4295 111.964 50.7827 112.081 51.203C112.202 51.6233 112.263 52.1065 112.263 52.6525C112.263 53.1422 112.196 53.5972 112.061 54.0175C111.931 54.4335 111.743 54.7953 111.496 55.103C111.253 55.4107 110.954 55.6533 110.599 55.831C110.248 56.0043 109.851 56.091 109.409 56.091C109.015 56.091 108.677 56.026 108.395 55.896C108.114 55.766 107.862 55.584 107.641 55.35V58.2165H106.374V49.396H107.134C107.312 49.396 107.423 49.4805 107.466 49.6495L107.576 50.384ZM117.235 53.0685C116.72 53.0858 116.282 53.127 115.922 53.192C115.563 53.2527 115.27 53.335 115.045 53.439C114.82 53.543 114.657 53.6665 114.557 53.8095C114.458 53.9482 114.408 54.1042 114.408 54.2775C114.408 54.4422 114.434 54.5852 114.486 54.7065C114.542 54.8235 114.616 54.921 114.707 54.999C114.802 55.0727 114.913 55.1268 115.038 55.1615C115.164 55.1962 115.301 55.2135 115.448 55.2135C115.643 55.2135 115.821 55.194 115.981 55.155C116.146 55.116 116.299 55.0618 116.442 54.9925C116.585 54.9188 116.722 54.83 116.852 54.726C116.982 54.622 117.11 54.5028 117.235 54.3685V53.0685ZM113.517 50.319C113.886 49.968 114.284 49.7058 114.713 49.5325C115.147 49.3592 115.621 49.2725 116.137 49.2725C116.514 49.2725 116.848 49.3353 117.138 49.461C117.428 49.5823 117.673 49.7535 117.872 49.9745C118.072 50.1955 118.221 50.4598 118.321 50.7675C118.425 51.0752 118.477 51.4153 118.477 51.788V56H117.911C117.786 56 117.69 55.9805 117.625 55.9415C117.56 55.8982 117.508 55.8202 117.469 55.7075L117.333 55.129C117.164 55.285 116.997 55.4237 116.832 55.545C116.668 55.662 116.494 55.7638 116.312 55.8505C116.135 55.9328 115.944 55.9957 115.74 56.039C115.537 56.0823 115.311 56.104 115.064 56.104C114.804 56.104 114.56 56.0693 114.33 56C114.105 55.9263 113.907 55.8158 113.738 55.6685C113.569 55.5212 113.435 55.337 113.335 55.116C113.24 54.895 113.192 54.6372 113.192 54.3425C113.192 54.0825 113.262 53.8333 113.4 53.595C113.543 53.3523 113.773 53.1357 114.089 52.945C114.41 52.7543 114.826 52.5983 115.337 52.477C115.853 52.3557 116.486 52.2863 117.235 52.269V51.788C117.235 51.2897 117.129 50.917 116.917 50.67C116.705 50.423 116.393 50.2995 115.981 50.2995C115.704 50.2995 115.47 50.3342 115.279 50.4035C115.093 50.4728 114.93 50.5508 114.791 50.6375C114.657 50.7198 114.538 50.7957 114.434 50.865C114.334 50.9343 114.23 50.969 114.122 50.969C114.035 50.969 113.959 50.9452 113.894 50.8975C113.834 50.8498 113.784 50.7935 113.745 50.7285L113.517 50.319ZM122.152 56.104C121.619 56.104 121.207 55.9545 120.917 55.6555C120.631 55.3565 120.488 54.9297 120.488 54.375V50.423H119.721C119.647 50.423 119.584 50.4013 119.532 50.358C119.485 50.3103 119.461 50.241 119.461 50.15V49.6365L120.533 49.487L120.819 47.5175C120.837 47.4438 120.869 47.3875 120.917 47.3485C120.969 47.3052 121.034 47.2835 121.112 47.2835H121.755V49.5H123.627V50.423H121.755V54.2905C121.755 54.5505 121.818 54.7455 121.944 54.8755C122.074 55.0012 122.239 55.064 122.438 55.064C122.555 55.064 122.655 55.0488 122.737 55.0185C122.824 54.9882 122.897 54.9557 122.958 54.921C123.019 54.882 123.071 54.8473 123.114 54.817C123.157 54.7867 123.196 54.7715 123.231 54.7715C123.274 54.7715 123.307 54.7823 123.328 54.804C123.354 54.8213 123.38 54.8517 123.406 54.895L123.783 55.506C123.575 55.6967 123.328 55.844 123.042 55.948C122.756 56.052 122.46 56.104 122.152 56.104ZM128.344 53.0685C127.828 53.0858 127.39 53.127 127.031 53.192C126.671 53.2527 126.379 53.335 126.153 53.439C125.928 53.543 125.765 53.6665 125.666 53.8095C125.566 53.9482 125.516 54.1042 125.516 54.2775C125.516 54.4422 125.542 54.5852 125.594 54.7065C125.651 54.8235 125.724 54.921 125.815 54.999C125.911 55.0727 126.021 55.1268 126.147 55.1615C126.272 55.1962 126.409 55.2135 126.556 55.2135C126.751 55.2135 126.929 55.194 127.089 55.155C127.254 55.116 127.408 55.0618 127.551 54.9925C127.694 54.9188 127.83 54.83 127.96 54.726C128.09 54.622 128.218 54.5028 128.344 54.3685V53.0685ZM124.626 50.319C124.994 49.968 125.393 49.7058 125.822 49.5325C126.255 49.3592 126.73 49.2725 127.245 49.2725C127.622 49.2725 127.956 49.3353 128.246 49.461C128.537 49.5823 128.781 49.7535 128.981 49.9745C129.18 50.1955 129.33 50.4598 129.429 50.7675C129.533 51.0752 129.585 51.4153 129.585 51.788V56H129.02C128.894 56 128.799 55.9805 128.734 55.9415C128.669 55.8982 128.617 55.8202 128.578 55.7075L128.441 55.129C128.272 55.285 128.105 55.4237 127.941 55.545C127.776 55.662 127.603 55.7638 127.421 55.8505C127.243 55.9328 127.052 55.9957 126.849 56.039C126.645 56.0823 126.42 56.104 126.173 56.104C125.913 56.104 125.668 56.0693 125.438 56C125.213 55.9263 125.016 55.8158 124.847 55.6685C124.678 55.5212 124.543 55.337 124.444 55.116C124.348 54.895 124.301 54.6372 124.301 54.3425C124.301 54.0825 124.37 53.8333 124.509 53.595C124.652 53.3523 124.881 53.1357 125.198 52.945C125.518 52.7543 125.934 52.5983 126.446 52.477C126.961 52.3557 127.594 52.2863 128.344 52.269V51.788C128.344 51.2897 128.238 50.917 128.025 50.67C127.813 50.423 127.501 50.2995 127.089 50.2995C126.812 50.2995 126.578 50.3342 126.387 50.4035C126.201 50.4728 126.038 50.5508 125.9 50.6375C125.765 50.7198 125.646 50.7957 125.542 50.865C125.443 50.9343 125.339 50.969 125.23 50.969C125.144 50.969 125.068 50.9452 125.003 50.8975C124.942 50.8498 124.892 50.7935 124.853 50.7285L124.626 50.319ZM132.472 50.3125C132.615 50.1608 132.764 50.0222 132.92 49.8965C133.076 49.7708 133.241 49.6647 133.414 49.578C133.592 49.487 133.78 49.4177 133.98 49.37C134.183 49.318 134.4 49.292 134.63 49.292C134.994 49.292 135.312 49.3527 135.585 49.474C135.862 49.5953 136.094 49.7665 136.281 49.9875C136.467 50.2042 136.608 50.4663 136.703 50.774C136.798 51.0817 136.846 51.4218 136.846 51.7945V56H135.572V51.7945C135.572 51.3222 135.464 50.956 135.247 50.696C135.03 50.4317 134.699 50.2995 134.253 50.2995C133.928 50.2995 133.622 50.3775 133.336 50.5335C133.054 50.6852 132.792 50.8932 132.55 51.1575V56H131.282V49.396H132.043C132.22 49.396 132.331 49.4805 132.374 49.6495L132.472 50.3125Z" fill="white"/>
</svg>
